{
  "name": "DogStel",
  "description": "DogStel RESTful API documentation",
  "title": "DogStel API",
  "url" : "https://dogstel.com/api",
  "header": {
    "title": "Introduction",
    "filename": "header.md"
  },
  "footer": {
    "title": "Final notes",
    "filename": "footer.md"
  },
  "template" : {
    "withGenerator" : false,
    "withCompare": false
  }
}