{
  "/js/sitters-profile/vendor.js": "/js/sitters-profile/vendor.js",
  "/js/sitters-profile/app.js": "/js/sitters-profile/app.js",
  "/js/sitters/app.js": "/js/sitters/app.js",
  "/css/app.css": "/css/app.css",
  "/css/vendor.css": "/css/vendor.css",
  "/css/front.css": "/css/front.css",
  "/js/me/app.js": "/js/me/app.js",
  "/js/sitters-register/app.js": "/js/sitters-register/app.js",
  "/js/profile/app.js": "/js/profile/app.js",
  "/js/pet/app.js": "/js/pet/app.js",
  "/js/sitters-profile/manifest.js": "/js/sitters-profile/manifest.js"
}